{
    "qid": "https://www.wikidata.org/wiki/Q63061396",
    "name": "Microsoft Word Document",
    "version": "6.0/95",
    "pronomID": "fmt/39",
    "mimeType": "application/msword",
    "fileExtension": ["doc"],
    "fileSignatures": [
        {
            "hexSignature": "D0 CF 11 E0 A1 B1 1A E1",
            "associatedSoftware": "67d19df7-e20a-4273-a57b-da4a8b0a9a36"
        }
    ]
}