{
    "identifier": "e422d8c3-e700-40e5-b0aa-db711ffa8686",
    "alternativeIDs": [
        {
            "alternativeID": "123456788",
            "source": "Catalog System",
            "local": true
        }
    ],
    "source": {
        "identifier": "e64793e6-d493-4304-9eab-600d02f7ee33",
        "name": "Yale University Library"
    },
    "productKey": "1112-111111",
    "objectFiles": [
        {
            "file": {
                "identifier": "5cb0b996-4cbf-4052-b2fe-8443261d2948",
                "location": "#/file/location/filename.iso",
                "fileName": "filename.iso",
                "fileFormat": "https://www.wikidata.org/wiki/Q877050"
            },
            "label": "Disc 1",
            "objectType": {
                "name": "Optical Disc",
                "qid": "https://www.wikidata.org/wiki/Q234870"
            },
            "order": 0
        },
        {
            "file": "f93d9644-4dca-43a7-b9f2-97d208004bd1",
            "label": "Disc 2",
            "objectType": {
                "name": "Optical Disc",
                "qid": "https://www.wikidata.org/wiki/Q234870"
            },
            "order": 1
        }
    ],
    "includes": [
        "bb8d506c-156f-4def-ac5b-0754fcdefb68",
        "20ffd5ea-1a98-4530-8731-7e690104713a",
        "173be90e-de71-4281-b322-d8b05172f564"
    ],
    "relatedEvent": [
        {
            "identifier": "167f384e-167f-471f-9f56-8e4e657be244",
            "eventAgent": "e334048e-baf3-43bb-a4d0-3e6eb8909548",
            "eventType": "import",
            "dateTime": "2020-02-21T12:20"
        },
        {
            "identifier": "82e42260-98a8-4158-9eb4-eb5e7afc3d5b",
            "eventAgent": "e334048e-baf3-43bb-a4d0-3e6eb8909548",
            "eventType": "share",
            "dateTime": "2020-02-21T16:20"
        }
    ]
}